<?xml version="1.0" encoding="utf-8"?>
<!-- Generator: Adobe Illustrator 22.0.1, SVG Export Plug-In . SVG Version: 6.00 Build 0)  -->
<svg version="1.1" id="Layer_1" xmlns="http://www.w3.org/2000/svg" xmlns:xlink="http://www.w3.org/1999/xlink" x="0px" y="0px"
	 viewBox="0 0 583.1 555.1" style="enable-background:new 0 0 583.1 555.1;" xml:space="preserve">
<style type="text/css">
	.st0{filter:url(#Adobe_OpacityMaskFilter);}
	.st1{clip-path:url(#SVGID_2_);fill:url(#SVGID_4_);}
	.st2{clip-path:url(#SVGID_2_);mask:url(#SVGID_3_);fill:url(#SVGID_5_);}
	.st3{filter:url(#Adobe_OpacityMaskFilter_1_);}
	.st4{clip-path:url(#SVGID_7_);fill:url(#SVGID_9_);}
	.st5{clip-path:url(#SVGID_7_);mask:url(#SVGID_8_);fill:url(#SVGID_10_);}
	.st6{fill:#FFB400;}
	.st7{fill:#FF8025;}
	.st8{fill:#FFD54F;}
	.st9{fill:#76FFD9;}
	.st10{opacity:0.2;enable-background:new    ;}
	.st11{clip-path:url(#SVGID_12_);fill:#FFFFFF;}
	.st12{opacity:0.1;enable-background:new    ;}
	.st13{clip-path:url(#SVGID_14_);}
	.st14{clip-path:url(#SVGID_16_);}
	.st15{clip-path:url(#SVGID_18_);fill:#FFFFFF;}
	.st16{clip-path:url(#SVGID_20_);fill:#FFC029;}
	.st17{clip-path:url(#SVGID_22_);fill:#FFC029;}
	.st18{fill:#FFC029;}
	.st19{fill:#00C395;}
</style>
<g>
	<g>
		<defs>
			<path id="SVGID_1_" d="M315,229.3c0,8.6-4.9,15.9-11.8,20v15.4c0,6.5-5.3,11.8-11.8,11.8c-3,0-5.7-1.2-7.8-3.1l-0.1,0.1
				l26.6,26.6h16.7c18.9,0,34.2-14.9,35.2-33.5l-53.8-53.8C312.5,217.1,315,222.9,315,229.3"/>
		</defs>
		<clipPath id="SVGID_2_">
			<use xlink:href="#SVGID_1_"  style="overflow:visible;"/>
		</clipPath>
		<defs>
			<filter id="Adobe_OpacityMaskFilter" filterUnits="userSpaceOnUse" x="239.9" y="173.6" width="165.9" height="165.9">
				<feColorMatrix  type="matrix" values="1 0 0 0 0  0 1 0 0 0  0 0 1 0 0  0 0 0 1 0"/>
			</filter>
		</defs>
		<mask maskUnits="userSpaceOnUse" x="239.9" y="173.6" width="165.9" height="165.9" id="SVGID_3_">
			<g class="st0">
				
					<linearGradient id="SVGID_4_" gradientUnits="userSpaceOnUse" x1="-2.2832" y1="427.1594" x2="3.5049" y2="427.1594" gradientTransform="matrix(10.4027 10.4067 -10.4067 10.4027 4762.8379 -4192.4116)">
					<stop  offset="0" style="stop-color:#1A1A1A"/>
					<stop  offset="1" style="stop-color:#000000"/>
				</linearGradient>
				<polygon class="st1" points="239.9,256.5 322.8,339.5 405.8,256.5 322.8,173.6 				"/>
			</g>
		</mask>
		
			<linearGradient id="SVGID_5_" gradientUnits="userSpaceOnUse" x1="-2.2832" y1="427.1594" x2="3.5049" y2="427.1594" gradientTransform="matrix(10.4027 10.4067 -10.4067 10.4027 4762.8379 -4192.4116)">
			<stop  offset="0" style="stop-color:#000000"/>
			<stop  offset="1" style="stop-color:#000000"/>
		</linearGradient>
		<polygon class="st2" points="239.9,256.5 322.8,339.5 405.8,256.5 322.8,173.6 		"/>
	</g>
	<g>
		<defs>
			<path id="SVGID_6_" d="M326.2,418.3l47.3,47.2h107.1v-47.2H326.2z M384.7,276.5c-5.5,26.9-29.4,47.3-57.9,47.3H256
				c-16.2,0-30.7-6.7-41.4-17.2l-0.1,0.1l88,88h177.9V276.5H384.7z M385.9,205.6v47.2h87.6l-47.3-47.2H385.9z"/>
		</defs>
		<clipPath id="SVGID_7_">
			<use xlink:href="#SVGID_6_"  style="overflow:visible;"/>
		</clipPath>
		<defs>
			<filter id="Adobe_OpacityMaskFilter_1_" filterUnits="userSpaceOnUse" x="84.5" y="72.6" width="525.9" height="526">
				<feColorMatrix  type="matrix" values="1 0 0 0 0  0 1 0 0 0  0 0 1 0 0  0 0 0 1 0"/>
			</filter>
		</defs>
		<mask maskUnits="userSpaceOnUse" x="84.5" y="72.6" width="525.9" height="526" id="SVGID_8_">
			<g class="st3">
				
					<linearGradient id="SVGID_9_" gradientUnits="userSpaceOnUse" x1="5.8075" y1="424.9312" x2="11.5952" y2="424.9312" gradientTransform="matrix(36.7074 36.7074 -36.7074 36.7074 15651.5693 -15556.5469)">
					<stop  offset="0" style="stop-color:#1A1A1A"/>
					<stop  offset="1" style="stop-color:#000000"/>
				</linearGradient>
				<polygon class="st4" points="84.5,335.6 347.5,598.6 610.4,335.6 347.5,72.6 				"/>
			</g>
		</mask>
		
			<linearGradient id="SVGID_10_" gradientUnits="userSpaceOnUse" x1="5.8075" y1="424.9312" x2="11.5952" y2="424.9312" gradientTransform="matrix(36.7074 36.7074 -36.7074 36.7074 15651.5693 -15556.5469)">
			<stop  offset="0" style="stop-color:#000000"/>
			<stop  offset="1" style="stop-color:#000000"/>
		</linearGradient>
		<polygon class="st5" points="84.5,335.6 347.5,598.6 610.4,335.6 347.5,72.6 		"/>
	</g>
	<path class="st6" d="M445,63.8H137.8c-71.7,0-130,58.3-130,130v248.1c0,26.1,21.2,47.3,47.3,47.3h472.6c26.1,0,47.3-21.2,47.3-47.3
		V193.8C575,122.1,516.7,63.8,445,63.8"/>
	<path class="st7" d="M445,87.5c54.6,0,99.2,41.5,105.1,94.5h-46.8c-4.2-39.1-28.9-73.1-64.9-94.5H445z"/>
	<rect x="102.4" y="205.6" class="st8" width="94.5" height="47.2"/>
	<path class="st9" d="M256,323.8h70.9c28.5,0,52.4-20.3,57.9-47.3h95.7v118.2H102.4v-47.2h59.1c6.5,0,11.8-5.3,11.8-11.8
		s-5.3-11.8-11.8-11.8h-59.1v-47.3h95.7C203.6,303.5,227.4,323.8,256,323.8"/>
	<path class="st9" d="M220.5,264.7V182h141.8v82.7c0,19.6-15.9,35.5-35.4,35.5H256C236.4,300.2,220.5,284.3,220.5,264.7"/>
	<g class="st10">
		<g>
			<defs>
				<rect id="SVGID_11_" x="220.5" y="182" width="59.1" height="118.2"/>
			</defs>
			<clipPath id="SVGID_12_">
				<use xlink:href="#SVGID_11_"  style="overflow:visible;"/>
			</clipPath>
			<path class="st11" d="M244.2,264.7V182h-23.6v82.7c0,19.6,15.9,35.5,35.5,35.5h23.6C260.1,300.2,244.2,284.3,244.2,264.7"/>
		</g>
	</g>
	<g class="st12">
		<g>
			<defs>
				<rect id="SVGID_13_" x="303.2" y="182" width="59.1" height="118.2"/>
			</defs>
			<clipPath id="SVGID_14_">
				<use xlink:href="#SVGID_13_"  style="overflow:visible;"/>
			</clipPath>
			<path class="st13" d="M338.7,182v82.7c0,19.6-15.9,35.5-35.4,35.5h23.6c19.6,0,35.4-15.9,35.4-35.5V182H338.7z"/>
		</g>
	</g>
	<rect x="102.4" y="418.3" class="st8" width="378.1" height="47.2"/>
	<rect x="102.4" y="453.8" class="st7" width="378.1" height="11.8"/>
	<g class="st12">
		<g>
			<defs>
				<rect id="SVGID_15_" x="102.4" y="382.9" width="378.1" height="11.8"/>
			</defs>
			<clipPath id="SVGID_16_">
				<use xlink:href="#SVGID_15_"  style="overflow:visible;"/>
			</clipPath>
			<rect x="102.4" y="382.9" class="st14" width="378.1" height="11.8"/>
		</g>
	</g>
	<rect x="385.9" y="205.6" class="st8" width="94.5" height="47.2"/>
	<rect x="102.4" y="241.1" class="st7" width="94.5" height="11.8"/>
	<rect x="385.9" y="241.1" class="st7" width="94.5" height="11.8"/>
	<path class="st9" d="M350.5,87.5c66.8,0,121.9,41.4,129.1,94.5h-93.7v-11.8c0-6.5-5.3-11.8-11.8-11.8H208.7
		c-6.5,0-11.8,5.3-11.8,11.8V182h-93.7c7.2-53.1,62.3-94.5,129.1-94.5H350.5z"/>
	<g class="st10">
		<g>
			<defs>
				<rect id="SVGID_17_" x="103.2" y="87.5" width="376.4" height="94.5"/>
			</defs>
			<clipPath id="SVGID_18_">
				<use xlink:href="#SVGID_17_"  style="overflow:visible;"/>
			</clipPath>
			<path class="st15" d="M232.3,99.3h118.2c66.8,0,121.9,36.2,129.1,82.7c-7.2-53.1-62.3-94.5-129.1-94.5H232.3
				c-66.8,0-121.9,41.4-129.1,94.5C110.4,135.5,165.6,99.3,232.3,99.3"/>
		</g>
	</g>
	<path class="st7" d="M137.8,87.5h6.5c-36,21.4-60.7,55.5-64.9,94.5H32.7C38.6,129,83.2,87.5,137.8,87.5"/>
	<path class="st7" d="M31.5,441.9V205.6h47.3v259.9H55.1C42.1,465.6,31.5,455,31.5,441.9"/>
	<g class="st10">
		<g>
			<defs>
				<rect id="SVGID_19_" x="32.7" y="87.5" width="111.6" height="94.5"/>
			</defs>
			<clipPath id="SVGID_20_">
				<use xlink:href="#SVGID_19_"  style="overflow:visible;"/>
			</clipPath>
			<path class="st16" d="M141.4,89.4c1-0.6,1.9-1.3,2.9-1.9h-6.5C83.2,87.5,38.6,129,32.7,182h23.6C61.5,135.6,96.3,98.1,141.4,89.4
				"/>
		</g>
	</g>
	<g class="st10">
		<g>
			<defs>
				<rect id="SVGID_21_" x="31.5" y="205.6" width="47.3" height="259.9"/>
			</defs>
			<clipPath id="SVGID_22_">
				<use xlink:href="#SVGID_21_"  style="overflow:visible;"/>
			</clipPath>
			<path class="st17" d="M55.1,441.9V205.6H31.5v236.3c0,13,10.6,23.6,23.6,23.6h23.6C65.7,465.6,55.1,455,55.1,441.9"/>
		</g>
	</g>
	<path class="st18" d="M441.4,89.4c-1-0.6-1.9-1.3-2.9-1.9h6.5c54.6,0,99.2,41.5,105.1,94.5h-23.6
		C521.3,135.6,486.6,98.1,441.4,89.4"/>
	<path class="st7" d="M551.4,441.9c0,13-10.6,23.6-23.6,23.6h-23.6V205.6h47.3V441.9z"/>
	<path class="st19" d="M185.1,134.7H256c6.5,0,11.8-5.3,11.8-11.8c0-6.5-5.3-11.8-11.8-11.8h-70.9c-6.5,0-11.8,5.3-11.8,11.8
		C173.3,129.5,178.5,134.7,185.1,134.7"/>
	<path class="st19" d="M303.2,134.7h23.6c6.5,0,11.8-5.3,11.8-11.8c0-6.5-5.3-11.8-11.8-11.8h-23.6c-6.5,0-11.8,5.3-11.8,11.8
		C291.4,129.5,296.7,134.7,303.2,134.7"/>
	<path class="st19" d="M232.3,371.1h70.9c6.5,0,11.8-5.3,11.8-11.8c0-6.5-5.3-11.8-11.8-11.8h-70.9c-6.5,0-11.8,5.3-11.8,11.8
		C220.5,365.8,225.8,371.1,232.3,371.1"/>
	<path class="st19" d="M397.8,347.4H445c6.5,0,11.8-5.3,11.8-11.8s-5.3-11.8-11.8-11.8h-47.3c-6.5,0-11.8,5.3-11.8,11.8
		S391.2,347.4,397.8,347.4"/>
	<path class="st18" d="M527.7,441.9V205.6h23.6v236.3c0,13-10.6,23.6-23.6,23.6h-23.6C517.1,465.6,527.7,455,527.7,441.9"/>
	<path class="st19" d="M279.6,249.3v15.4c0,6.5,5.3,11.8,11.8,11.8c6.5,0,11.8-5.3,11.8-11.8v-15.4c6.9-4.1,11.8-11.4,11.8-20
		c0-13-10.6-23.6-23.6-23.6c-13,0-23.6,10.6-23.6,23.6C267.8,237.9,272.7,245.1,279.6,249.3"/>
</g>
</svg>
